…
    ## Rows: 52179 Columns: 12
    ## ── Column specification ────────────────────────────────────────────────────────
    ## Delimiter: ","
    ## chr (9): uid, victim_last, victim_first, victim_race, victim_age, victim_sex...
    ## dbl (3): reported_date, lat, lon
    ## 
    ## ℹ Use `spec()` to retrieve the full column specification for this data.
    ## ℹ Specify the column types or set `show_col_types = FALSE` to quiet this message.

``` r
homicide_data
```

    ## # A tibble: 39,693 × 14
    ##    uid        reported_date victim_last  victim_first victim_race victim_age
    ##    <chr>              <dbl> <chr>        <chr>        <chr>            <dbl>
    ##  1 Alb-000003      20100601 SATTERFIELD  VIVIANA      White               15
    ##  2 Alb-000005      20100102 MULA         VIVIAN       White               72
    ##  3 Alb-000006      20100126 BOOK         GERALDINE    White               91
    ##  4 Alb-000009      20100130 MARTIN-LEYVA GUSTAVO      White               56
    ##  5 Alb-000012      20100218 LUJAN        KEVIN        White               NA
    ##  6 Alb-000016      20100308 GRAY         STEFANIA     White               43
    ##  7 Alb-000018      20100323 DAVID        LARRY        White               52
    ##  8 Alb-000019      20100402 BRITO        ELIZABETH    White               22
    ##  9 Alb-000021      20100423 KING         TEVION       Black               15
    ## 10 Alb-000022      20100423 BOYKIN       CEDRIC       Black               25
    ## # ℹ 39,683 more rows
    ## # ℹ 8 more variables: victim_sex <chr>, city <chr>, state <chr>, lat <dbl>,
    ## #   lon <dbl>, disposition <chr>, city_state <chr>, status <dbl>

First let’s narrow down to Baltimore, MD

``` r
baltimore_homicide_df = 
  homicide_data |> 
  filter(city_state == 'Baltimore, MD')

baltimore_homicide_df
```

    ## # A tibble: 2,753 × 14
    ##    uid        reported_date victim_last victim_first  victim_race victim_age
    ##    <chr>              <dbl> <chr>       <chr>         <chr>            <dbl>
    ##  1 Bal-001607      20070101 NELSON      LEON          Black               17
    ##  2 Bal-001608      20070102 GOLF        EDDIE         Black               26
    ##  3 Bal-001609      20070105 MACKENNEY   THOMAS JOSEPH Black               21
    ##  4 Bal-001610      20070105 CANUPP      EDWARD LEE    White               61
    ##  5 Bal-001611      20070106 CUNNINGHAN  MICHAEL       Black               46
    ##  6 Bal-001612      20070106 ALSTON      RAY WILLIAM   Black               27
    ##  7 Bal-001613      20070107 HENDERSON   YULE ANTONIO  Black               21
    ##  8 Bal-001614      20070108 MCDOWELL    MARCU         Black               16
    ##  9 Bal-001615      20070108 GARDNER     RODNEY THOMAS Black               21
    ## 10 Bal-001616      20070108 BURNETTE    NELSENE       Black               44
    ## # ℹ 2,743 more rows
    ## # ℹ 8 more variables: victim_sex <chr>, city <chr>, state <chr>, lat <dbl>,
    ## #   lon <dbl>, disposition <chr>, city_state <chr>, status <dbl>
…
    ## using cached file: /Users/cjd2195/Library/Caches/org.R-project.R/R/rnoaa/noaa_ghcnd/USW00094728.dly

    ## date created (size, mb): 2023-10-05 10:29:35.021583 (8.527)

    ## file min/max dates: 1869-01-01 / 2023-10-31

``` r
weather_df
```

    ## # A tibble: 365 × 6
    ##    name           id          date        prcp  tmax  tmin
    ##    <chr>          <chr>       <date>     <dbl> <dbl> <dbl>
    ##  1 CentralPark_NY USW00094728 2022-01-01   201  13.3  10  
    ##  2 CentralPark_NY USW00094728 2022-01-02    10  15     2.8
    ##  3 CentralPark_NY USW00094728 2022-01-03     0   2.8  -5.5
    ##  4 CentralPark_NY USW00094728 2022-01-04     0   1.1  -7.1
    ##  5 CentralPark_NY USW00094728 2022-01-05    58   8.3  -0.5
    ##  6 CentralPark_NY USW00094728 2022-01-06     0   5     1.1
    ##  7 CentralPark_NY USW00094728 2022-01-07    97   1.1  -3.8
    ##  8 CentralPark_NY USW00094728 2022-01-08     0  -1    -6.6
    ##  9 CentralPark_NY USW00094728 2022-01-09    25   4.4  -1.6
    ## 10 CentralPark_NY USW00094728 2022-01-10     0   4.4  -4.3
    ## # ℹ 355 more rows
…
compact_boot_results
```

    ## # A tibble: 5,000 × 7
    ##    strap_number models r.squared beta_0 beta_1    beta_2 log_b1_b2
    ##           <int> <list>     <dbl>  <dbl>  <dbl>     <dbl>     <dbl>
    ##  1            1 <lm>       0.921   7.95  1.01  -0.00274     NaN   
    ##  2            2 <lm>       0.932   8.14  1.02  -0.00593     NaN   
    ##  3            3 <lm>       0.908   8.13  1.02  -0.00183     NaN   
    ##  4            4 <lm>       0.932   7.94  1.03  -0.00698     NaN   
    ##  5            5 <lm>       0.924   8.40  1.02  -0.00940     NaN   
    ##  6            6 <lm>       0.909   8.00  1.01  -0.000542    NaN   
    ##  7            7 <lm>       0.942   7.23  1.06  -0.00570     NaN   
    ##  8            8 <lm>       0.919   7.97  1.01  -0.000981    NaN   
    ##  9            9 <lm>       0.897   7.81  1.01   0.00367      -5.60
    ## 10           10 <lm>       0.903   8.19  0.983  0.00716      -4.96
    ## # ℹ 4,990 more rows
…
